---
http_interactions:
- request:
    method: get
    uri: https://sandbox.rexpense.com/api/v1/pre_expenses
    body:
      encoding: US-ASCII
      string: ''
    headers:
      User-Agent:
      - Rexpense Ruby Client v1.0.0
      Accept:
      - application/json
      Content-Type:
      - application/json
      Authorization:
      - Basic OGNkMDQ5YjRhZmNhOTIxM2ZiMjQ1NTUyODM5NGFiMmZiMGJjMzRmNWM5MDVmMzNjOlg=
  response:
    status:
      code: 200
      message: OK
    headers:
      Server:
      - Cowboy
      Date:
      - Thu, 21 Sep 2017 13:25:08 GMT
      Connection:
      - keep-alive
      Links:
      - 'Link: <https://sandbox.rexpense.com/api/v1/pre_expenses?page=2&per_page=30>;
        rel="last", <https://sandbox.rexpense.com/api/v1/pre_expenses?page=2&per_page=30>;
        rel="next"'
      Content-Type:
      - application/json; charset=utf-8
      Etag:
      - W/"a4885bc4f2b3cd2a0990a64b5bdce5bf"
      Cache-Control:
      - max-age=0, private, must-revalidate
      X-Request-Id:
      - eecbe00c-76a4-4dbe-9878-e997d6763a0d
      X-Runtime:
      - '1.212182'
      Strict-Transport-Security:
      - max-age=631152000; includeSubdomains
      Transfer-Encoding:
      - chunked
      Via:
      - 1.1 vegur
    body:
      encoding: UTF-8
      string: '{"pre_expenses":[{"id":3,"description":"","amount":{"fractional":"900.0","currency":{"id":"brl","alternate_symbols":null,"decimal_mark":",","disambiguate_symbol":null,"html_entity":"R$","iso_code":"BRL","iso_numeric":"986","name":"Brazilian
        Real","priority":100,"smallest_denomination":5,"subunit":"Centavo","subunit_to_unit":100,"symbol":"R$","symbol_first":true,"thousands_separator":"."},"bank":{"store":{"index":{},"options":{},"mutex":{},"in_transaction":false},"rounding_method":null}},"currency":"USD","tags":["uber"],"converted_at":null,"deleted_at":null,"ignored_at":null,"extra_information":{"receipt_detail":{"total_charged":9.0,"duration":"00:11:32","currency_code":"USD","distance":"1.87","distance_label":"miles"}},"occurred_at":"2017-01-14T00:00:00Z","integration":{"id":14,"type":"UberIntegration"}},{"id":4,"description":"","amount":{"fractional":"900.0","currency":{"id":"brl","alternate_symbols":null,"decimal_mark":",","disambiguate_symbol":null,"html_entity":"R$","iso_code":"BRL","iso_numeric":"986","name":"Brazilian
        Real","priority":100,"smallest_denomination":5,"subunit":"Centavo","subunit_to_unit":100,"symbol":"R$","symbol_first":true,"thousands_separator":"."},"bank":{"store":{"index":{},"options":{},"mutex":{},"in_transaction":false},"rounding_method":null}},"currency":"USD","tags":["uber"],"converted_at":null,"deleted_at":null,"ignored_at":null,"extra_information":{"receipt_detail":{"total_charged":9.0,"duration":"00:11:32","currency_code":"USD","distance":"1.87","distance_label":"miles"}},"occurred_at":"2017-01-16T00:00:00Z","integration":{"id":14,"type":"UberIntegration"}},{"id":5,"description":"","amount":null,"currency":null,"tags":["uber"],"converted_at":null,"deleted_at":null,"ignored_at":null,"extra_information":{},"occurred_at":"2017-01-17T00:00:00Z","integration":{"id":14,"type":"UberIntegration"}},{"id":6,"description":"","amount":null,"currency":null,"tags":["uber"],"converted_at":null,"deleted_at":null,"ignored_at":null,"extra_information":{},"occurred_at":"2017-01-17T00:00:00Z","integration":{"id":14,"type":"UberIntegration"}},{"id":7,"description":"","amount":null,"currency":null,"tags":["uber"],"converted_at":null,"deleted_at":null,"ignored_at":null,"extra_information":{},"occurred_at":"2017-01-19T00:00:00Z","integration":{"id":14,"type":"UberIntegration"}},{"id":8,"description":"","amount":null,"currency":null,"tags":["uber"],"converted_at":null,"deleted_at":null,"ignored_at":null,"extra_information":{},"occurred_at":"2017-01-25T00:00:00Z","integration":{"id":14,"type":"UberIntegration"}},{"id":9,"description":"","amount":null,"currency":null,"tags":["uber"],"converted_at":null,"deleted_at":null,"ignored_at":null,"extra_information":{},"occurred_at":"2017-01-28T00:00:00Z","integration":{"id":14,"type":"UberIntegration"}},{"id":10,"description":"","amount":null,"currency":null,"tags":["uber"],"converted_at":null,"deleted_at":null,"ignored_at":null,"extra_information":{},"occurred_at":"2017-01-28T00:00:00Z","integration":{"id":14,"type":"UberIntegration"}},{"id":11,"description":"","amount":null,"currency":null,"tags":["uber"],"converted_at":null,"deleted_at":null,"ignored_at":null,"extra_information":{},"occurred_at":"2017-01-29T00:00:00Z","integration":{"id":14,"type":"UberIntegration"}},{"id":12,"description":"","amount":null,"currency":null,"tags":["uber"],"converted_at":null,"deleted_at":null,"ignored_at":null,"extra_information":{},"occurred_at":"2017-02-05T00:00:00Z","integration":{"id":14,"type":"UberIntegration"}},{"id":13,"description":"","amount":null,"currency":null,"tags":["uber"],"converted_at":null,"deleted_at":null,"ignored_at":null,"extra_information":{},"occurred_at":"2017-02-13T00:00:00Z","integration":{"id":14,"type":"UberIntegration"}},{"id":14,"description":"","amount":null,"currency":null,"tags":["uber"],"converted_at":null,"deleted_at":null,"ignored_at":null,"extra_information":{},"occurred_at":"2017-02-13T00:00:00Z","integration":{"id":14,"type":"UberIntegration"}},{"id":15,"description":"","amount":null,"currency":null,"tags":["uber"],"converted_at":null,"deleted_at":null,"ignored_at":null,"extra_information":{},"occurred_at":"2017-02-13T00:00:00Z","integration":{"id":14,"type":"UberIntegration"}},{"id":16,"description":"","amount":null,"currency":null,"tags":["uber"],"converted_at":null,"deleted_at":null,"ignored_at":null,"extra_information":{},"occurred_at":"2017-04-16T00:00:00Z","integration":{"id":14,"type":"UberIntegration"}},{"id":17,"description":"","amount":null,"currency":null,"tags":["uber"],"converted_at":null,"deleted_at":null,"ignored_at":null,"extra_information":{},"occurred_at":"2017-04-30T00:00:00Z","integration":{"id":14,"type":"UberIntegration"}},{"id":18,"description":"","amount":null,"currency":null,"tags":["uber"],"converted_at":null,"deleted_at":null,"ignored_at":null,"extra_information":{},"occurred_at":"2017-04-30T00:00:00Z","integration":{"id":14,"type":"UberIntegration"}},{"id":19,"description":"","amount":null,"currency":null,"tags":["uber"],"converted_at":null,"deleted_at":null,"ignored_at":null,"extra_information":{},"occurred_at":"2017-05-20T00:00:00Z","integration":{"id":14,"type":"UberIntegration"}},{"id":20,"description":"","amount":null,"currency":null,"tags":["uber"],"converted_at":null,"deleted_at":null,"ignored_at":null,"extra_information":{},"occurred_at":"2017-06-10T00:00:00Z","integration":{"id":14,"type":"UberIntegration"}},{"id":21,"description":"","amount":null,"currency":null,"tags":["uber"],"converted_at":null,"deleted_at":null,"ignored_at":null,"extra_information":{},"occurred_at":"2017-06-10T00:00:00Z","integration":{"id":14,"type":"UberIntegration"}},{"id":22,"description":"","amount":null,"currency":null,"tags":["uber"],"converted_at":null,"deleted_at":null,"ignored_at":null,"extra_information":{},"occurred_at":"2017-06-10T00:00:00Z","integration":{"id":14,"type":"UberIntegration"}},{"id":23,"description":"","amount":null,"currency":null,"tags":["uber"],"converted_at":null,"deleted_at":null,"ignored_at":null,"extra_information":{},"occurred_at":"2017-06-10T00:00:00Z","integration":{"id":14,"type":"UberIntegration"}},{"id":24,"description":"","amount":null,"currency":null,"tags":["uber"],"converted_at":null,"deleted_at":null,"ignored_at":null,"extra_information":{},"occurred_at":"2017-06-10T00:00:00Z","integration":{"id":14,"type":"UberIntegration"}},{"id":25,"description":"","amount":null,"currency":null,"tags":["uber"],"converted_at":null,"deleted_at":null,"ignored_at":null,"extra_information":{},"occurred_at":"2017-06-11T00:00:00Z","integration":{"id":14,"type":"UberIntegration"}},{"id":26,"description":"","amount":null,"currency":null,"tags":["uber"],"converted_at":null,"deleted_at":null,"ignored_at":null,"extra_information":{},"occurred_at":"2017-06-11T00:00:00Z","integration":{"id":14,"type":"UberIntegration"}},{"id":27,"description":"","amount":null,"currency":null,"tags":["uber"],"converted_at":null,"deleted_at":null,"ignored_at":null,"extra_information":{},"occurred_at":"2017-06-15T00:00:00Z","integration":{"id":14,"type":"UberIntegration"}},{"id":28,"description":"","amount":null,"currency":null,"tags":["uber"],"converted_at":null,"deleted_at":null,"ignored_at":null,"extra_information":{},"occurred_at":"2017-06-19T00:00:00Z","integration":{"id":14,"type":"UberIntegration"}},{"id":91,"description":"","amount":null,"currency":null,"tags":["uber"],"converted_at":null,"deleted_at":null,"ignored_at":null,"extra_information":{},"occurred_at":"2017-09-03T00:00:00Z","integration":{"id":14,"type":"UberIntegration"}},{"id":93,"description":"","amount":null,"currency":null,"tags":["uber"],"converted_at":null,"deleted_at":null,"ignored_at":null,"extra_information":{},"occurred_at":"2017-09-05T00:00:00Z","integration":{"id":14,"type":"UberIntegration"}},{"id":94,"description":"","amount":null,"currency":null,"tags":["uber"],"converted_at":null,"deleted_at":null,"ignored_at":null,"extra_information":{},"occurred_at":"2017-09-05T00:00:00Z","integration":{"id":14,"type":"UberIntegration"}},{"id":95,"description":"","amount":null,"currency":null,"tags":["uber"],"converted_at":null,"deleted_at":null,"ignored_at":null,"extra_information":{},"occurred_at":"2017-09-05T00:00:00Z","integration":{"id":14,"type":"UberIntegration"}}],"count":46,"current_page":1,"total_pages":2}'
    http_version: '1.1'
    adapter_metadata:
      effective_url: https://sandbox.rexpense.com/api/v1/pre_expenses
  recorded_at: Thu, 21 Sep 2017 13:29:51 GMT
recorded_with: VCR 2.9.3
